Lukas Sönning - Some obstacles to replication in corpus linguistics
…
      1 IRR = Incidence Rate Ratio, CI = Confidence Interval

round(exp(coef(m))*1e6, 0)

(Intercept) 
        792 

Next, we consider the frequency of should in the four broad genres.

should_Brown

# A tibble: 500 x 9
   text_id modal n_tokens corpus genre text_category n_words time_period variety
   <chr>   <chr>    <dbl> <chr>  <fct> <chr>           <dbl> <fct>       <chr>  
 1 A01     shou~        6 Brown  press press_report~    2206 1961        AmE    
 2 A02     shou~        1 Brown  press press_report~    2268 1961        AmE    
 3 A03     shou~        1 Brown  press press_report~    2234 1961        AmE    
 4 A04     shou~        2 Brown  press press_report~    2202 1961        AmE    
 5 A05     shou~        7 Brown  press press_report~    2202 1961        AmE    
 6 A06     shou~        2 Brown  press press_report~    2224 1961        AmE    
 7 A07     shou~        1 Brown  press press_report~    2263 1961        AmE    
 8 A08     shou~        3 Brown  press press_report~    2196 1961        AmE    
 9 A09     shou~        1 Brown  press press_report~    2224 1961        AmE    
10 A10     shou~        5 Brown  press press_report~    2252 1961        AmE    
# i 490 more rows
…
