Using R and RStudio
…
Data summary: group_by() and summarize()

Obtain data summaries (mean, count, sd, etc.)

d |> group_by(speaker) |> 
    summarize(n_tokens = n())

# A tibble: 44 x 2
   speaker   n_tokens
   <fct>        <int>
 1 Adriana          3
 2 Ah Sa           12
 3 Angie            5
 4 Annabelle       10
 5 Anne             4
 6 Ari             19
 7 Ben              8
 8 Brad             7
 9 Carl             5
10 Chiara           8
# ... with 34 more rows

dplyr functions: Longer pipes

Token counts by speaker: group_by() and summmarize()

d |> group_by(speaker) |> 
    summarize(n_tokens = n())

# A tibble: 44 x 2
   speaker   n_tokens
   <fct>        <int>
 1 Adriana          3
 2 Ah Sa           12
 3 Angie            5
 4 Annabelle       10
 5 Anne             4
 6 Ari             19
 7 Ben              8
 8 Brad             7
 9 Carl             5
10 Chiara           8
# ... with 34 more rows

dplyr functions: Longer pipes

Sort speakers by token count: arrange()

d |> group_by(speaker) |> 
    summarize(n_tokens = n()) |> 
    arrange(n_tokens)

# A tibble: 44 x 2
   speaker n_tokens
   <fct>      <int>
 1 Lara           1
 2 M              1
 3 Oliver         1
 4 Sam            1
 5 Joanna         2
 6 Tara           2
 7 Tuyen          2
 8 Adriana        3
 9 John           3
10 Anne           4
# ... with 34 more rows

dplyr functions: Longer pipes

We want to sort in descending order: desc(...)

d |> group_by(speaker) |> 
    summarize(n_tokens = n()) |> 
    arrange(desc(n_tokens))

# A tibble: 44 x 2
   speaker   n_tokens
   <fct>        <int>
 1 Xenia           34
 2 Gimlet          33
 3 Ari             19
 4 Nelle           19
 5 Kamal           18
 6 Ah Sa           12
 7 Dana            11
 8 Sigmund         11
 9 Annabelle       10
10 Dee             10
# ... with 34 more rows
…
ggplot2

The way in which ggplot2 works may seem confusing at first. However, it is a very flexible and powerful tool and has become the de-facto standard for adanced data visualization in R. There is a large community of users, which makes it easy to find help online.

Data visualization: Disagreement data

Obtain distribution of token counts across speakers

d |> group_by(speaker) |> 
    summarize(n_tokens = n())

# A tibble: 44 x 2
   speaker   n_tokens
   <fct>        <int>
 1 Adriana          3
 2 Ah Sa           12
 3 Angie            5
 4 Annabelle       10
 5 Anne             4
 6 Ari             19
 7 Ben              8
 8 Brad             7
 9 Carl             5
10 Chiara           8
# ... with 34 more rows
…
