PhD workshop
…
d |> filter(subject == "subj_01")

# A tibble: 4 x 3
  subject quantifier percent
  <chr>   <chr>        <dbl>
1 subj_01 few              5
2 subj_01 some            15
3 subj_01 many            30
4 subj_01 most            50

Select a subset of variables: select()

d |> select(subject, percent)

# A tibble: 80 x 2
   subject percent
   <chr>     <dbl>
 1 subj_01       5
 2 subj_02      20
 3 subj_03      10
 4 subj_04       8
 5 subj_05      12
 6 subj_06      15
 7 subj_07      25
 8 subj_08      10
 9 subj_09      15
10 subj_10      10
# i 70 more rows

Reorder rows based on a variable: arrange()

d |> arrange(quantifier)

# A tibble: 80 x 3
   subject quantifier percent
   <chr>   <chr>        <dbl>
 1 subj_01 few              5
 2 subj_02 few             20
 3 subj_03 few             10
 4 subj_04 few              8
 5 subj_05 few             12
 6 subj_06 few             15
 7 subj_07 few             25
 8 subj_08 few             10
 9 subj_09 few             15
10 subj_10 few             10
# i 70 more rows
…
