4 Data structure – Modeling variationist corpus data: A mixed-effects framework
…
Once the plot plan is set up, we tabulate and visualize the distributional features of our data. Two chart types are particularly useful to this end: dot diagrams and bubble charts.

4.6.2 The structural component

An important first step is to get an insight into the distribution of tokens across clusters. The cluster variable needs to be available as a column in the data set. We start by producing a table of token counts by speaker and sort this table:

ing_sample |> 
  group_by(speaker) |> 
  summarize(token_count = n()) |> 
  arrange(-token_count)

This will return the following table:

# A tibble: 66 × 2
   speaker token_count
   <fct>         <int>
 1 142             186
 2 376             137
 3 116             135
 4 368             135
 5 379             135
 6 174             133
 7 328             133
 8 383             132
 9 370             131
10 369             130
# ℹ 56 more rows
…
10 Certain structures are more prone to produce unequal token counts across speakers. We can get an idea of how prone a structure is by inspecting the variation in rates across text samples of equal size. It would be helpful to have some sort of typology of language structures at some point.

11 Again, a typology would be useful to have, based on linguistic criteria.

The second step is to do the same for the different lexical items in your data. Determine the overall number of unique lexemes, and then the number of tokens for each lexeme. This gives you a second important perspective on the structure of your data. Again, you produce a dot diagram. Depending on the type of structure you are investigating, the distribution of token counts across lexemes could be highly uneven. It could show a Zipfian distribution.11

ing_sample |> 
  group_by(word_2) |> 
  summarize(token_count = n()) |> 
  arrange(-token_count)

This will return the following table:

# A tibble: 1,024 × 2
   word_2                token_count
   <fct>                       <int>
 1 going_verb                    386
 2 doing_verb                    226
 3 being_gerund                  161
 4 working_verb                  159
 5 trying_verb                   147
 6 being_verb                    133
 7 interesting_adjective         132
 8 coming_verb                   127
 9 getting_verb                  125
10 going_gerund                  119
# ℹ 1,014 more rows
…
