7 Token-level predictors – Modeling variationist corpus data: A mixed-effects framework
…
The distinction between within- and between-effects is related to some well-known fallacies in clustered data structures. Thus, the ecological fallacy describes a situation where we base our analysis on cluster means of a token-level predictor and then interpret the estimates as a within-cluster effect. The atomistic fallacy, on the other hand, refers to the situation where we ignore the clustering and interpret effects as between-effects.

7.10 Tools

7.10.1 Plotting the composition of clusters using a dot diagram

To graph the composition of clusters, we first use the package dplyr to determine the cluster means for the token-level predictor, which is here denoted by X:

ing_sample %>% 
  group_by(word) %>% 
  summarize(mX = mean(X))

This will return the following table:

# A tibble: 1,024 × 2
   word_2                    mX
   <fct>                  <dbl>
 1 going_verb            -0.845
 2 doing_verb            -0.752
 3 being_gerund          -0.752
 4 working_verb          -0.811
 5 trying_verb           -1    
 6 being_verb            -0.759
 7 interesting_adjective -0.333
 8 coming_verb           -0.732
 9 getting_verb          -0.744
10 going_gerund          -0.882
# ℹ 1,014 more rows
…
7.10.2 Exploring between-cluster trends using a bubble chart

To draw a bubble chart, we first use dplyr to calculate the necessary cluster-level statistics, i.e. cluster means for the token-level predictor (mX), overall token count in the data set (frequency) and the overall share of ing for the cluster (prop_ing).

ing_sample %>% 
  group_by(word) %>% 
  summarize(mX = mean(X),
            prop_ing = sum(ing)/n(),
            frequency = n())

This will return the following table:

# A tibble: 1,024 × 4
   word_2                    mX prop_ing frequency
   <fct>                  <dbl>    <dbl>     <int>
 1 going_verb            -0.845    0.345       386
 2 doing_verb            -0.752    0.438       226
 3 being_gerund          -0.752    0.578       161
 4 working_verb          -0.811    0.497       159
 5 trying_verb           -1        0.150       147
 6 being_verb            -0.759    0.481       133
 7 interesting_adjective -0.333    0.894       132
 8 coming_verb           -0.732    0.354       127
 9 getting_verb          -0.744    0.592       125
10 going_gerund          -0.882    0.445       119
# ℹ 1,014 more rows
…
Figure 7.17

7.10.3 Recoding token-level predictors in R

To specify a between-within model and a Mundlak model, we need to add two new variables to our data frame: (i) cluster means mX and (ii) the cluster-mean centered version of the token-level predictor dX. We can do this using dplyr:

ing_sample %>% 
  group_by(word) %>% 
  mutate(mX = mean()) %>% 
  ungroup() %>% 
  mutate(dX = X - mX)

This will return the following table:

# A tibble: 6,314 × 4
   word_2                 X     mX     dX
   <fct>              <dbl>  <dbl>  <dbl>
 1 morning_noun          -1 -0.489 -0.511
 2 engineering_gerund    -1 -0.125 -0.875
 3 falling_verb          -1 -1      0    
 4 walking_verb          -1 -0.895 -0.105
 5 working_gerund        -1 -0.634 -0.366
 6 trying_verb           -1 -1      0    
 7 trying_verb           -1 -1      0    
 8 trying_verb           -1 -1      0    
 9 trying_verb           -1 -1      0    
10 going_verb            -1 -0.845 -0.155
# ℹ 6,304 more rows
…
